{
  "name": "holamundo",
  "version": "1.0.0",
  "main": "node_modules/expo/AppEntry.js",
  "scripts": {
    "start": "expo start",
    "android": "expo start --android",
    "ios": "expo start --ios",
    "web": "expo start --web",
    "eject": "expo eject"
  },
  "dependencies": {
    "@expo-google-fonts/prompt": "^0.2.2",
    "@react-navigation/bottom-tabs": "^6.3.2",
    "@react-navigation/native": "^6.0.11",
    "@react-navigation/native-stack": "^6.7.0",
    "add": "^2.0.6",
    "expo": "~45.0.0",
    "expo-font": "~10.1.0",
    "expo-status-bar": "~1.3.0",
    "react": "17.0.2",
    "react-dom": "17.0.2",
    "react-native": "^0.68.2",
    "react-native-gesture-handler": "~2.2.1",
    "react-native-web": "0.17.7",

    "@react-navigation/stack": "^6.2.2",
    "@types/react": "^18.0.15",
    "@types/react-native": "^0.69.5",
    "expo-splash-screen": "~0.15.1",
    "link": "^1.5.1",
    

    "react-native-reanimated": "~2.8.0",
    "react-native-safe-area-context": "4.2.4",
    "react-native-screens": "~3.11.1"

  },
  "devDependencies": {
    "@babel/core": "^7.12.9"
  },
  "private": true
}


